# Blender MTL File: 'None'
# Material Count: 1

newmtl SCG_build2_roof_base
Ns 194.117647
Ka 0.000000 0.000000 0.000000
Kd 0.640000 0.640000 0.640000
Ks 0.100000 0.100000 0.100000
Ni 1.000000
d 1.000000
illum 2
map_Bump Concrete_Triangles_Height_Map.png
map_Kd Concrete_Triangles.png
