\relax 
\@writefile{toc}{\contentsline {section}{\numberline {1}Introduction}{2}}
\@writefile{toc}{\contentsline {section}{\numberline {2}Parts of the project}{2}}
\@writefile{toc}{\contentsline {subsection}{\numberline {2.1}Parser Module}{2}}
\@writefile{toc}{\contentsline {subsection}{\numberline {2.2}User Interface}{2}}
\@writefile{toc}{\contentsline {subsection}{\numberline {2.3}Single Player}{2}}
\@writefile{toc}{\contentsline {subsection}{\numberline {2.4}Multiplayer}{2}}
\@writefile{toc}{\contentsline {subsection}{\numberline {2.5}cheating}{2}}
